{
    "build_target": "amd64",
    "channel": "stable",
    "installations": [
        {
            "installation-paths": [
                {
                    "target-files": [
                        {
                            "sha256": "e7a459b51c719042debdd8af4264d5c41b0f3207a2d041aef27f2159a1d29afa",
                            "size": 1194328064,
                            "url": "http://dl.amnesia.boum.org/tails/stable/tails-amd64-3.16/tails-amd64-3.16.img"
                        }
                    ],
                    "type": "img"
                },
                {
                    "target-files": [
                        {
                            "sha256": "3e2dd158450237be66306aa10d7e7a49ddd4bed10647144695565030abaaffa2",
                            "size": 1184440320,
                            "url": "http://dl.amnesia.boum.org/tails/stable/tails-amd64-3.16/tails-amd64-3.16.iso"
                        }
                    ],
                    "type": "iso"
                }
            ],
            "version": "3.16"
        }
    ],
    "product-name": "Tails"
}
